%YAML 1.1
%TAG !u! tag:unity3d.com,2011:
--- !u!114 &11400000
MonoBehaviour:
  m_ObjectHideFlags: 0
  m_CorrespondingSourceObject: {fileID: 0}
  m_PrefabInstance: {fileID: 0}
  m_PrefabAsset: {fileID: 0}
  m_GameObject: {fileID: 0}
  m_Enabled: 1
  m_EditorHideFlags: 0
  m_Script: {fileID: 11500000, guid: 9c76e9e207e2a2d4d9414067f8a4467f, type: 3}
  m_Name: Level3
  m_EditorClassIdentifier: 
  startSprite: {fileID: 0}
  ambianceEventPaths: []
  elementInfoSets:
  - kind: 0
    elementInfos:
    - weight: 1
      prefab: {fileID: 1073325907674962504, guid: 9e3f9b5deeba549359971df43af035ec,
        type: 3}
      attackEventPath: event:/SD/SD_Foleys_Env/EN3Couverts
    minSpawnDelay: 10
    maxSpawnDelay: 20
    speed: {x: 0, y: 10}
    warmLoops: 0
  - kind: 1
    elementInfos:
    - weight: 1
      prefab: {fileID: 6871486899407701250, guid: 228da6763e36e4fbda632f634f74c768,
        type: 3}
      attackEventPath: 
    - weight: 1
      prefab: {fileID: 6871486899407701250, guid: ba61993a332f6b040b994517a43478be,
        type: 3}
      attackEventPath: 
    - weight: 1
      prefab: {fileID: 6871486899407701250, guid: bd187dfaa01d8414ca6ea99341a6cfab,
        type: 3}
      attackEventPath: 
    minSpawnDelay: 10
    maxSpawnDelay: 20
    speed: {x: 5, y: 0}
    warmLoops: 0
